{ 
	"Query": {
		"route": "MEPA",
		"type" : "add",
		"label": "HighTemperature",
		"query": [
			"SELECT * FROM SensorData(sensorName='Temperature') WHERE sensorValue[1] > 25"
		]
	}
}

SELECT avg(sensorValue[1]) as value FROM SensorData(sensorName='Temperature').win:time_batch(10 sec)